%YAML 1.1
%TAG !u! tag:unity3d.com,2011:
--- !u!1 &5418824468964155832
GameObject:
  m_ObjectHideFlags: 0
  m_CorrespondingSourceObject: {fileID: 0}
  m_PrefabInstance: {fileID: 0}
  m_PrefabAsset: {fileID: 0}
  serializedVersion: 6
  m_Component:
  - component: {fileID: 2213802738700570455}
  - component: {fileID: 365109850226461107}
  - component: {fileID: 2957230979349597366}
  m_Layer: 0
  m_Name: Arm
  m_TagString: Untagged
  m_Icon: {fileID: 0}
  m_NavMeshLayer: 0
  m_StaticEditorFlags: 0
  m_IsActive: 1
--- !u!4 &2213802738700570455
Transform:
  m_ObjectHideFlags: 0
  m_CorrespondingSourceObject: {fileID: 0}
  m_PrefabInstance: {fileID: 0}
  m_PrefabAsset: {fileID: 0}
  m_GameObject: {fileID: 5418824468964155832}
  m_LocalRotation: {x: 0, y: 0, z: 0, w: 1}
  m_LocalPosition: {x: 0.004, y: 0.548, z: -0.04774798}
  m_LocalScale: {x: 1, y: 1, z: 1}
  m_Children:
  - {fileID: 5279218954072725004}
  m_Father: {fileID: 0}
  m_RootOrder: 0
  m_LocalEulerAnglesHint: {x: 0, y: 0, z: 0}
--- !u!114 &365109850226461107
MonoBehaviour:
  m_ObjectHideFlags: 0
  m_CorrespondingSourceObject: {fileID: 0}
  m_PrefabInstance: {fileID: 0}
  m_PrefabAsset: {fileID: 0}
  m_GameObject: {fileID: 5418824468964155832}
  m_Enabled: 1
  m_EditorHideFlags: 0
  m_Script: {fileID: 11500000, guid: 214e006b7a3949f41a243cabbe16801e, type: 3}
  m_Name: 
  m_EditorClassIdentifier: 
  target: {fileID: 0}
  offsetAngle: 0
--- !u!212 &2957230979349597366
SpriteRenderer:
  m_ObjectHideFlags: 0
  m_CorrespondingSourceObject: {fileID: 0}
  m_PrefabInstance: {fileID: 0}
  m_PrefabAsset: {fileID: 0}
  m_GameObject: {fileID: 5418824468964155832}
  m_Enabled: 1
  m_CastShadows: 0
  m_ReceiveShadows: 0
  m_DynamicOccludee: 1
  m_MotionVectors: 1
  m_LightProbeUsage: 1
  m_ReflectionProbeUsage: 1
  m_RayTracingMode: 0
  m_RenderingLayerMask: 1
  m_RendererPriority: 0
  m_Materials:
  - {fileID: 10754, guid: 0000000000000000f000000000000000, type: 0}
  m_StaticBatchInfo:
    firstSubMesh: 0
    subMeshCount: 0
  m_StaticBatchRoot: {fileID: 0}
  m_ProbeAnchor: {fileID: 0}
  m_LightProbeVolumeOverride: {fileID: 0}
  m_ScaleInLightmap: 1
  m_ReceiveGI: 1
  m_PreserveUVs: 0
  m_IgnoreNormalsForChartDetection: 0
  m_ImportantGI: 0
  m_StitchLightmapSeams: 1
  m_SelectedEditorRenderState: 0
  m_MinimumChartSize: 4
  m_AutoUVMaxDistance: 0.5
  m_AutoUVMaxAngle: 89
  m_LightmapParameters: {fileID: 0}
  m_SortingLayerID: 0
  m_SortingLayer: 0
  m_SortingOrder: 101
  m_Sprite: {fileID: 21300000, guid: e87f5924ed3d9d44296fd6a38de3b811, type: 3}
  m_Color: {r: 1, g: 1, b: 1, a: 1}
  m_FlipX: 0
  m_FlipY: 0
  m_DrawMode: 0
  m_Size: {x: 0.625, y: 1.09}
  m_AdaptiveModeThreshold: 0.5
  m_SpriteTileMode: 0
  m_WasSpriteAssigned: 1
  m_MaskInteraction: 0
  m_SpriteSortPoint: 0
--- !u!1001 &837422104536064854
PrefabInstance:
  m_ObjectHideFlags: 0
  serializedVersion: 2
  m_Modification:
    m_TransformParent: {fileID: 2213802738700570455}
    m_Modifications:
    - target: {fileID: 4817887727056663898, guid: bdabe5a1873f89b448df941e3f2366a9,
        type: 3}
      propertyPath: m_LocalPosition.x
      value: 0.0059999228
      objectReference: {fileID: 0}
    - target: {fileID: 4817887727056663898, guid: bdabe5a1873f89b448df941e3f2366a9,
        type: 3}
      propertyPath: m_LocalPosition.y
      value: 0.0039999783
      objectReference: {fileID: 0}
    - target: {fileID: 4817887727056663898, guid: bdabe5a1873f89b448df941e3f2366a9,
        type: 3}
      propertyPath: m_LocalPosition.z
      value: 0.04774798
      objectReference: {fileID: 0}
    - target: {fileID: 4817887727056663898, guid: bdabe5a1873f89b448df941e3f2366a9,
        type: 3}
      propertyPath: m_LocalRotation.x
      value: -0
      objectReference: {fileID: 0}
    - target: {fileID: 4817887727056663898, guid: bdabe5a1873f89b448df941e3f2366a9,
        type: 3}
      propertyPath: m_LocalRotation.y
      value: -0
      objectReference: {fileID: 0}
    - target: {fileID: 4817887727056663898, guid: bdabe5a1873f89b448df941e3f2366a9,
        type: 3}
      propertyPath: m_LocalRotation.z
      value: -0
      objectReference: {fileID: 0}
    - target: {fileID: 4817887727056663898, guid: bdabe5a1873f89b448df941e3f2366a9,
        type: 3}
      propertyPath: m_LocalRotation.w
      value: 1
      objectReference: {fileID: 0}
    - target: {fileID: 4817887727056663898, guid: bdabe5a1873f89b448df941e3f2366a9,
        type: 3}
      propertyPath: m_RootOrder
      value: 0
      objectReference: {fileID: 0}
    - target: {fileID: 4817887727056663898, guid: bdabe5a1873f89b448df941e3f2366a9,
        type: 3}
      propertyPath: m_LocalEulerAnglesHint.x
      value: 0
      objectReference: {fileID: 0}
    - target: {fileID: 4817887727056663898, guid: bdabe5a1873f89b448df941e3f2366a9,
        type: 3}
      propertyPath: m_LocalEulerAnglesHint.y
      value: 0
      objectReference: {fileID: 0}
    - target: {fileID: 4817887727056663898, guid: bdabe5a1873f89b448df941e3f2366a9,
        type: 3}
      propertyPath: m_LocalEulerAnglesHint.z
      value: 0
      objectReference: {fileID: 0}
    - target: {fileID: 8196708735829545102, guid: bdabe5a1873f89b448df941e3f2366a9,
        type: 3}
      propertyPath: m_Name
      value: Gun
      objectReference: {fileID: 0}
    m_RemovedComponents: []
  m_SourcePrefab: {fileID: 100100000, guid: bdabe5a1873f89b448df941e3f2366a9, type: 3}
--- !u!4 &5279218954072725004 stripped
Transform:
  m_CorrespondingSourceObject: {fileID: 4817887727056663898, guid: bdabe5a1873f89b448df941e3f2366a9,
    type: 3}
  m_PrefabInstance: {fileID: 837422104536064854}
  m_PrefabAsset: {fileID: 0}
